{
  "project_info": {
    "project_number": "702747673082",
    "firebase_url": "https://fitnet-dc799-default-rtdb.firebaseio.com",
    "project_id": "fitnet-dc799",
    "storage_bucket": "fitnet-dc799.appspot.com"
  },
  "client": [
    {
      "client_info": {
        "mobilesdk_app_id": "1:702747673082:android:d45e02776e527565f52443",
        "android_client_info": {
          "package_name": "com.afo.fit"
        }
      },
      "oauth_client": [
        {
          "client_id": "702747673082-kpubj2m8bklf5fma8mbhdodtogh003o5.apps.googleusercontent.com",
          "client_type": 3
        }
      ],
      "api_key": [
        {
          "current_key": "AIzaSyCZcaO3QovtrflCYDkLCr7FUJfOrLzuBYA"
        }
      ],
      "services": {
        "appinvite_service": {
          "other_platform_oauth_client": [
            {
              "client_id": "702747673082-kpubj2m8bklf5fma8mbhdodtogh003o5.apps.googleusercontent.com",
              "client_type": 3
            }
          ]
        }
      }
    }
  ],
  "configuration_version": "1"
}